{
   "id": "ajec73uoadtvpmsuggo8",
   "service_account_id": "ajekij3j0c0dqcc0q2ah",
   "created_at": "2022-09-10T21:43:51.738033999Z",
   "key_algorithm": "RSA_2048",
   "public_key": "-----BEGIN PUBLIC KEY-----\nMIIBIjANBgkqhkiG9w0BAQEFAAOCAQ8AMIIBCgKCAQEAuO4PMWUHL0+6J1bMni5s\neZMGWc+H0VwhCP9k30O/JKtqEAR37UIZlrktW/WgA13BFNzHQdCt0qMagdZ0Cw4e\nv8Bg/GKqdLd0J99KDKqHUUUtqeQ+TOjKtZlpjPGzUwMNZmycz5fqqFPHnhA83zQS\nPpyGdc01HBmjf+0K/3hsYznaI0H5fOMzfcnP63XXLaf5J3kI3jp1u3rSfq8oiYQp\nlGJE63/sddRgiwG7eCQYFa5eSCWDZHFf1Ihsc4YeW0sK0xPa7APSMoX4LxGJYixo\nHUf565AGBIbXGUvNzoONESXpa+FuvNlGNP25q2hxIq10A/5q/3/k3XNsriz6Zovo\nnwIDAQAB\n-----END PUBLIC KEY-----\n",
   "private_key": "-----BEGIN PRIVATE KEY-----\nMIIEvgIBADANBgkqhkiG9w0BAQEFAASCBKgwggSkAgEAAoIBAQC47g8xZQcvT7on\nVsyeLmx5kwZZz4fRXCEI/2TfQ78kq2oQBHftQhmWuS1b9aADXcEU3MdB0K3SoxqB\n1nQLDh6/wGD8Yqp0t3Qn30oMqodRRS2p5D5M6Mq1mWmM8bNTAw1mbJzPl+qoU8ee\nEDzfNBI+nIZ1zTUcGaN/7Qr/eGxjOdojQfl84zN9yc/rddctp/kneQjeOnW7etJ+\nryiJhCmUYkTrf+x11GCLAbt4JBgVrl5IJYNkcV/UiGxzhh5bSwrTE9rsA9Iyhfgv\nEYliLGgdR/nrkAYEhtcZS83Og40RJelr4W682UY0/bmraHEirXQD/mr/f+Tdc2yu\nLPpmi+ifAgMBAAECggEARBIg1oo9FE2xFITvSbSF6lRTrKBm+ooCgPjdbQ9XXwyX\nvHCgol1H5QKhry1hKowKo/7Ge7PwH8441h0V1vHqIKQULyK0YsUahQi8jaABskkY\nD2a8BfxUjXb8csyPORmxB4goSoO9dRttqYGJnpFgu9pK5jbUe1T2qYKcH0B5CSak\ngQzo0ouuvaVcda8R/JMmNQi1W+dHDwqAK03CasmbuP8oHNeXcPPctW3JtWzqe+kH\np8QBG2+CuN+CnkRlv/FOou35V5Uy90N1uhp/HWI60EGa2d/DHA5dJxESraSfupnN\nBQtozjJ2oC5RVyd9CGwC0gm1zQ1gnkHkOepZZJZaEQKBgQDO0EkHJXsdUUQRoYv8\nhg5GkAha5pwp4MSW27NcFwSxs2qK8a5NAQsr+4Ol0jZwcE5iMplHaVsI7t9Ggx7v\ne/hURUHDYoZuzxrd/wnHEADY9KjJ5bpphm6oMEG9LmbYtQbMlgZ6vDKw9vgRJya0\n6IOOBlhiq1OBBvKv12fuUs3DEQKBgQDk6WY4adAqqY15G7VRO3elVczXU5orKnNC\nDcCUu8NoFOTN02KV/WGTrF4y/P0ES+If/19IcKQexA98VY6Z9di6BYi9DtyZX06W\nebJksoYkQ3igphdaaccocAyAzEQErMHHPtX47Od01N4o8wmyQLixEsFwnFgYDOqG\nLaOkd4qQrwKBgQC8tnA8tiW+Hb5n/Cn5VfXGy3zkPVO4HuIj6fujB1oAMIACov9y\nQoaILqv07nlAZioQDq2w7ODlqNpRxCnBSzTQ6JVWjRuwFwkkEqlAXEj5r14pRJex\n3LoyfD4wOxwbmCvJGQh2jC4RLnozZK88GoKYYQ/bkQvUS5u9emfanvIkkQKBgBtU\n5tibgbhmUDcCoO6XDB0YloGrQMAgrGxZmgHoPVejDwKoV6ATBeCM9x5daJRnvxMU\n+bp7gI0P2c19pa4qVXs4h/AS4zII2ChNVYiCbFPOHowH6Mfp01a3sjZ6rTBltCln\nDkNPff9MH06CXkkDQ0oZNDGO6VHN0P6+Wkib4VaPAoGBAL/1rYW2Hm06XnWTpOLl\noJkklz5DrG24NjPzzyd/to1wgUmRvanU9d4LHh4xqAjHNKpj/LWTGhFalRYntYA5\n/EWrYLvmLibBJY0YqJw+VTO0O4u1CtEPLFWBlEvvX2kvHOl03A53N3gToqpGGUyJ\nCRFTXgnXviP62YnfU7kYilQy\n-----END PRIVATE KEY-----\n"
}